…
``` r
pfas_data <- nhanes_load_data("PFAS_I", "2015-2016", demographics = TRUE)
```

    ## Downloading PFAS_I.XPT to C:\Users\slewa\AppData\Local\Temp\RtmpOIgvJc/PFAS_I.XPT

    ## Downloading DEMO_I.XPT to C:\Users\slewa\AppData\Local\Temp\RtmpOIgvJc/DEMO_I.XPT

    ## Caching CSV to C:\Users\slewa\AppData\Local\Temp\RtmpOIgvJc/DEMO_I.csv

``` r
as_tibble(pfas_data)
```

    ## # A tibble: 2,170 x 72
    ##     SEQN cycle SDDSRVYR RIDSTATR RIAGENDR RIDAGEYR RIDAGEMN RIDRETH1
    ##    <dbl> <chr>    <dbl>    <dbl>    <dbl>    <dbl>    <dbl>    <dbl>
    ##  1 83736 2015~        9        2        2       42       NA        4
    ##  2 83745 2015~        9        2        2       15       NA        3
    ##  3 83750 2015~        9        2        1       45       NA        5
    ##  4 83754 2015~        9        2        2       67       NA        2
    ##  5 83762 2015~        9        2        2       27       NA        4
    ##  6 83767 2015~        9        2        2       54       NA        5
    ##  7 83769 2015~        9        2        1       49       NA        5
    ##  8 83770 2015~        9        2        1       15       NA        4
    ##  9 83774 2015~        9        2        2       13       NA        3
    ## 10 83776 2015~        9        2        2       58       NA        1
    ## # ... with 2,160 more rows, and 64 more variables: RIDRETH3 <dbl>,
    ## #   RIDEXMON <dbl>, RIDEXAGM <dbl>, DMQMILIZ <dbl>, DMQADFC <dbl>,
    ## #   DMDBORN4 <dbl>, DMDCITZN <dbl>, DMDYRSUS <dbl>, DMDEDUC3 <dbl>,
    ## #   DMDEDUC2 <dbl>, DMDMARTL <dbl>, RIDEXPRG <dbl>, SIALANG <dbl>,
    ## #   SIAPROXY <dbl>, SIAINTRP <dbl>, FIALANG <dbl>, FIAPROXY <dbl>,
    ## #   FIAINTRP <dbl>, MIALANG <dbl>, MIAPROXY <dbl>, MIAINTRP <dbl>,
    ## #   AIALANGA <dbl>, DMDHHSIZ <dbl>, DMDFMSIZ <dbl>, DMDHHSZA <dbl>,
    ## #   DMDHHSZB <dbl>, DMDHHSZE <dbl>, DMDHRGND <dbl>, DMDHRAGE <dbl>,
    ## #   DMDHRBR4 <dbl>, DMDHREDU <dbl>, DMDHRMAR <dbl>, DMDHSEDU <dbl>,
…
