…
``` r
pfas_data <- nhanes_load_data("PFAS_I", "2015-2016", demographics = TRUE)
```

    ## Downloading PFAS_I.XPT to C:\Users\jenni\AppData\Local\Temp\Rtmpw1qMri/PFAS_I.XPT

    ## Downloading DEMO_I.XPT to C:\Users\jenni\AppData\Local\Temp\Rtmpw1qMri/DEMO_I.XPT

    ## Caching CSV to C:\Users\jenni\AppData\Local\Temp\Rtmpw1qMri/DEMO_I.csv

``` r
as_tibble(pfas_data)
```

    ## # A tibble: 2,170 x 72
    ##     SEQN cycle SDDSRVYR RIDSTATR RIAGENDR RIDAGEYR RIDAGEMN RIDRETH1
    ##    <dbl> <chr>    <dbl>    <dbl>    <dbl>    <dbl>    <dbl>    <dbl>
    ##  1 83736 2015~        9        2        2       42       NA        4
    ##  2 83745 2015~        9        2        2       15       NA        3
    ##  3 83750 2015~        9        2        1       45       NA        5
    ##  4 83754 2015~        9        2        2       67       NA        2
    ##  5 83762 2015~        9        2        2       27       NA        4
    ##  6 83767 2015~        9        2        2       54       NA        5
    ##  7 83769 2015~        9        2        1       49       NA        5
    ##  8 83770 2015~        9        2        1       15       NA        4
    ##  9 83774 2015~        9        2        2       13       NA        3
    ## 10 83776 2015~        9        2        2       58       NA        1
    ## # ... with 2,160 more rows, and 64 more variables: RIDRETH3 <dbl>,
    ## #   RIDEXMON <dbl>, RIDEXAGM <dbl>, DMQMILIZ <dbl>, DMQADFC <dbl>,
    ## #   DMDBORN4 <dbl>, DMDCITZN <dbl>, DMDYRSUS <dbl>, DMDEDUC3 <dbl>,
    ## #   DMDEDUC2 <dbl>, DMDMARTL <dbl>, RIDEXPRG <dbl>, SIALANG <dbl>,
    ## #   SIAPROXY <dbl>, SIAINTRP <dbl>, FIALANG <dbl>, FIAPROXY <dbl>,
    ## #   FIAINTRP <dbl>, MIALANG <dbl>, MIAPROXY <dbl>, MIAINTRP <dbl>,
    ## #   AIALANGA <dbl>, DMDHHSIZ <dbl>, DMDFMSIZ <dbl>, DMDHHSZA <dbl>,
    ## #   DMDHHSZB <dbl>, DMDHHSZE <dbl>, DMDHRGND <dbl>, DMDHRAGE <dbl>,
    ## #   DMDHRBR4 <dbl>, DMDHREDU <dbl>, DMDHRMAR <dbl>, DMDHSEDU <dbl>,
…
NHANES Codebook References: <https://wwwn.cdc.gov/Nchs/Nhanes/2015-2016/BMX_I.htm>

``` r
bodymass_data <- nhanes_load_data("BMX_I", "2015-2016", demographics = TRUE)
```

    ## Downloading BMX_I.XPT to C:\Users\jenni\AppData\Local\Temp\Rtmpw1qMri/BMX_I.XPT

``` r
as_tibble(bodymass_data)
```

    ## # A tibble: 9,544 x 76
    ##     SEQN cycle SDDSRVYR RIDSTATR RIAGENDR RIDAGEYR RIDAGEMN RIDRETH1
    ##    <int> <chr>    <int>    <int>    <int>    <int>    <int>    <int>
    ##  1 83732 2015~        9        2        1       62       NA        3
    ##  2 83733 2015~        9        2        1       53       NA        3
    ##  3 83734 2015~        9        2        1       78       NA        3
    ##  4 83735 2015~        9        2        2       56       NA        3
    ##  5 83736 2015~        9        2        2       42       NA        4
    ##  6 83737 2015~        9        2        2       72       NA        1
    ##  7 83738 2015~        9        2        2       11       NA        1
    ##  8 83739 2015~        9        2        1        4       NA        3
    ##  9 83740 2015~        9        2        1        1       13        2
    ## 10 83741 2015~        9        2        1       22       NA        4
    ## # ... with 9,534 more rows, and 68 more variables: RIDRETH3 <int>,
    ## #   RIDEXMON <int>, RIDEXAGM <int>, DMQMILIZ <int>, DMQADFC <int>,
    ## #   DMDBORN4 <int>, DMDCITZN <int>, DMDYRSUS <int>, DMDEDUC3 <int>,
    ## #   DMDEDUC2 <int>, DMDMARTL <int>, RIDEXPRG <int>, SIALANG <int>,
    ## #   SIAPROXY <int>, SIAINTRP <int>, FIALANG <int>, FIAPROXY <int>,
    ## #   FIAINTRP <int>, MIALANG <int>, MIAPROXY <int>, MIAINTRP <int>,
    ## #   AIALANGA <int>, DMDHHSIZ <int>, DMDFMSIZ <int>, DMDHHSZA <int>,
    ## #   DMDHHSZB <int>, DMDHHSZE <int>, DMDHRGND <int>, DMDHRAGE <int>,
    ## #   DMDHRBR4 <int>, DMDHREDU <int>, DMDHRMAR <int>, DMDHSEDU <int>,
…
