…
Body Mass
---------

NHANES Codebook References: <https://wwwn.cdc.gov/Nchs/Nhanes/2015-2016/BMX_I.htm>

### Load and Inspect BMI data

``` r
bodymass_data <- nhanes_load_data("BMX_I", "2015-2016", demographics = TRUE)
as_tibble(bodymass_data)
```

    ## # A tibble: 9,544 x 76
    ##     SEQN cycle SDDSRVYR RIDSTATR RIAGENDR RIDAGEYR RIDAGEMN RIDRETH1
    ##    <int> <chr>    <int>    <int>    <int>    <int>    <int>    <int>
    ##  1 83732 2015~        9        2        1       62       NA        3
    ##  2 83733 2015~        9        2        1       53       NA        3
    ##  3 83734 2015~        9        2        1       78       NA        3
    ##  4 83735 2015~        9        2        2       56       NA        3
    ##  5 83736 2015~        9        2        2       42       NA        4
    ##  6 83737 2015~        9        2        2       72       NA        1
    ##  7 83738 2015~        9        2        2       11       NA        1
    ##  8 83739 2015~        9        2        1        4       NA        3
    ##  9 83740 2015~        9        2        1        1       13        2
    ## 10 83741 2015~        9        2        1       22       NA        4
    ## # ... with 9,534 more rows, and 68 more variables: RIDRETH3 <int>,
    ## #   RIDEXMON <int>, RIDEXAGM <int>, DMQMILIZ <int>, DMQADFC <int>,
    ## #   DMDBORN4 <int>, DMDCITZN <int>, DMDYRSUS <int>, DMDEDUC3 <int>,
    ## #   DMDEDUC2 <int>, DMDMARTL <int>, RIDEXPRG <int>, SIALANG <int>,
    ## #   SIAPROXY <int>, SIAINTRP <int>, FIALANG <int>, FIAPROXY <int>,
    ## #   FIAINTRP <int>, MIALANG <int>, MIAPROXY <int>, MIAINTRP <int>,
    ## #   AIALANGA <int>, DMDHHSIZ <int>, DMDFMSIZ <int>, DMDHHSZA <int>,
    ## #   DMDHHSZB <int>, DMDHHSZE <int>, DMDHRGND <int>, DMDHRAGE <int>,
    ## #   DMDHRBR4 <int>, DMDHREDU <int>, DMDHRMAR <int>, DMDHSEDU <int>,
…
